<svg xmlns="http://www.w3.org/2000/svg" width="25" height="28" viewBox="0 0 25 28">
    <path fill="#FFF" fill-rule="nonzero" d="M23.94 4.54h-6.408V3.28C17.532 1.472 16.106 0 14.354 0h-3.708C8.894 0 7.468 1.472 7.468 3.281V4.54H1.06C.474 4.54 0 5.03 0 5.633c0 .604.474 1.094 1.06 1.094h1.096l1.291 17.28.002.015a4.418 4.418 0 0 0 1.362 2.834A4.155 4.155 0 0 0 7.668 28h9.664c2.207 0 4.02-1.697 4.22-3.948.053-.601-.377-1.133-.96-1.188-.583-.055-1.097.388-1.15.99-.099 1.116-1.006 1.959-2.11 1.959H7.668c-1.1 0-2.006-.852-2.109-1.982L4.281 6.727H20.72l-.905 12.11c-.045.603.391 1.129.975 1.175.027.003.055.004.082.004.548 0 1.012-.436 1.055-1.01l.918-12.28h1.097c.585 0 1.059-.49 1.059-1.093 0-.604-.474-1.094-1.06-1.094zm-8.527 0H9.587V3.28c0-.603.475-1.094 1.06-1.094h3.707c.584 0 1.06.491 1.06 1.094V4.54zM7.687 8.914c.583-.027 1.079.442 1.104 1.045l.53 12.52c.026.603-.428 1.114-1.012 1.14a.969.969 0 0 1-.047.001c-.564 0-1.033-.458-1.058-1.046l-.53-12.52c-.025-.603.428-1.114 1.013-1.14zm8.522 1.045c.025-.603.52-1.072 1.104-1.045.585.027 1.038.537 1.012 1.14l-.53 12.52c-.024.588-.493 1.046-1.057 1.046h-.047c-.584-.027-1.038-.538-1.012-1.141l.53-12.52zm-4.768.048c0-.604.474-1.094 1.059-1.094s1.06.49 1.06 1.094v12.52c0 .604-.475 1.093-1.06 1.093-.585 0-1.06-.49-1.06-1.093v-12.52z"/>
</svg>
