[
  {
    "ID": 1,
    "parentID": 0,
    "Phone": "(403) 125-2552",
    "City": "Coevorden",
    "Name": "Grady"
  },
  {
    "ID": 2,
    "Phone": "(979) 486-1932",
    "City": "Chełm",
    "Name": "Scarlet"
  },
  {
    "ID": 3,
    "Phone": "(573) 685-8350",
    "City": "Wardha",
    "Name": "Adria"
  },
  {
    "ID": 4,
    "parentID": 3,
    "Phone": "(630) 292-9737",
    "City": "Villers-la-Loue",
    "Name": "Xerxes"
  }
]